Tunis day 1 demo
…
lmocounts = read_tsv(
  '../LMO/16S/dada2/LMO.16S.dada2.tsv.gz',
  col_types = cols(
    seqid = col_character(),
    sample = col_character(),
    count = col_integer()
  )
)

A table with sums.

lmocounts %>% group_by(sample) %>%
  summarise(sumcount = sum(count), mean = mean(count), n = n())

## # A tibble: 373 x 4
##                       sample sumcount     mean     n
##                        <chr>    <int>    <dbl> <int>
##  1 LMO.16SDNA.20110325.3.0.2    83563 140.6785   594
##  2 LMO.16SDNA.20110411.3.0.2    53490 143.4048   373
##  3   LMO.16SDNA.20110414.0.2   166001 166.6677   996
##  4   LMO.16SDNA.20110420.0.2    25954 114.3348   227
##  5 LMO.16SDNA.20110427.3.0.2   153787 206.7030   744
##  6   LMO.16SDNA.20110506.0.2    73979 121.6760   608
##  7 LMO.16SDNA.20110506.3.0.2    42360 155.7353   272
##  8 LMO.16SDNA.20110509.3.0.2    63378 159.6423   397
##  9 LMO.16SDNA.20110512.3.0.2    84676 162.2146   522
## 10   LMO.16SDNA.20110516.0.2   156641 144.2366  1086
## # ... with 363 more rows
…
